<?xml version="1.0" encoding="UTF-8" standalone="no"?>
<!DOCTYPE svg PUBLIC "-//W3C//DTD SVG 20010904//EN"
              "http://www.w3.org/TR/2001/REC-SVG-20010904/DTD/svg10.dtd">

<svg xmlns="http://www.w3.org/2000/svg"
     width="1.11111in" height="1.38889in"
     viewBox="0 0 100 125">
  <path id="Imported Path #3"
        d="M 55.99,18.25
           C 55.99,14.74 62.35,5.18 62.35,5.18
             62.35,5.18 68.71,14.74 68.71,18.25
             68.71,21.76 65.86,24.61 62.35,24.61
             58.83,24.61 55.99,21.76 55.99,18.25 Z" />
  <path id="Imported Path #2"
        d="M 34.73,18.25
           C 34.73,14.74 41.09,5.18 41.09,5.18
             41.09,5.18 47.45,14.74 47.45,18.25
             47.45,21.76 44.60,24.61 41.09,24.61
             37.58,24.61 34.73,21.76 34.73,18.25 Z" />
  <path id="Imported Path"
        d="M 91.00,63.30
           C 91.00,63.30 91.00,74.78 91.00,74.78
             91.00,78.33 89.00,81.25 85.00,81.76
             85.00,81.76 85.00,91.04 85.00,91.04
             85.00,92.99 83.66,95.00 81.71,95.00
             81.71,95.00 75.88,95.00 75.88,95.00
             73.93,95.00 73.00,92.99 73.00,91.04
             73.00,91.04 73.00,82.00 73.00,82.00
             73.00,82.00 28.00,82.00 28.00,82.00
             28.00,82.00 28.00,91.04 28.00,91.04
             28.00,92.99 26.42,95.00 24.47,95.00
             24.47,95.00 18.64,95.00 18.64,95.00
             16.69,95.00 15.00,92.99 15.00,91.04
             15.00,91.04 15.00,81.81 15.00,81.81
             11.00,81.46 9.00,78.45 9.00,74.78
             9.00,74.78 9.00,63.30 9.00,63.30
             9.00,59.58 11.00,56.53 16.00,56.26
             16.00,56.26 16.00,38.04 16.00,38.04
             16.00,34.14 18.45,31.00 22.35,31.00
             22.35,31.00 78.18,31.00 78.18,31.00
             82.08,31.00 85.00,34.14 85.00,38.04
             85.00,38.04 85.00,56.32 85.00,56.32
             89.00,56.83 91.00,59.76 91.00,63.30 Z
           M 21.00,56.00
           C 21.00,56.00 79.00,56.00 79.00,56.00
             79.00,56.00 79.00,40.69 79.00,40.69
             79.00,38.74 77.30,37.00 75.35,37.00
             75.35,37.00 25.00,37.00 25.00,37.00
             23.05,37.00 21.00,38.74 21.00,40.69
             21.00,40.69 21.00,56.00 21.00,56.00 Z
           M 28.00,69.13
           C 28.00,65.62 25.16,62.77 21.64,62.77
             18.13,62.77 15.29,65.62 15.29,69.13
             15.29,72.64 18.13,75.49 21.64,75.49
             25.16,75.49 28.00,72.64 28.00,69.13 Z
           M 84.89,69.13
           C 84.89,65.62 82.04,62.77 78.53,62.77
             75.02,62.77 72.17,65.62 72.17,69.13
             72.17,72.64 75.02,75.49 78.53,75.49
             82.04,75.49 84.89,72.64 84.89,69.13 Z" />
</svg>
